<svg width="90" height="90" viewBox="0 0 90 90" fill="none" xmlns="http://www.w3.org/2000/svg">
<circle opacity="0.8" cx="45" cy="45" r="45" fill="#1E56A0"/>
<rect x="25" y="52.799" width="28" height="6" rx="3" transform="rotate(-45 25 52.799)" fill="#F6F6F6"/>
<rect width="28" height="6" rx="3" transform="matrix(0.707107 0.707107 0.707107 -0.707107 41 37.4142)" fill="#F6F6F6"/>
</svg>
