<svg width="27" height="45" viewBox="0 0 27 45" fill="none" xmlns="http://www.w3.org/2000/svg">
<g opacity="0.7">
<line x1="3.05437" y1="22.9194" x2="24.0794" y2="2.94568" stroke="#F6F6F6" stroke-width="3" stroke-linecap="round"/>
<line x1="3.11913" y1="22.9437" x2="23.9037" y2="41.9209" stroke="#F6F6F6" stroke-width="3" stroke-linecap="round"/>
</g>
</svg>



