<svg width="26" height="45" viewBox="0 0 26 45" fill="none" xmlns="http://www.w3.org/2000/svg">
<g opacity="0.7">
<line x1="1.5" y1="-1.5" x2="30.5" y2="-1.5" transform="matrix(-0.724999 -0.688749 -0.688749 0.724999 23.2 25.04)" stroke="#F6F6F6" stroke-width="3" stroke-linecap="round"/>
<line x1="1.5" y1="-1.5" x2="29.6448" y2="-1.5" transform="matrix(-0.738485 0.674269 0.674269 0.738485 25.2 23.04)" stroke="#F6F6F6" stroke-width="3" stroke-linecap="round"/>
</g>
</svg>




